{
  "metadata": {
    "toolPackage": "@microsoft/api-extractor",
    "toolVersion": "7.43.1",
    "schemaVersion": 1011,
    "oldestForwardsCompatibleVersion": 1001,
    "tsdocConfig": {
      "$schema": "https://developer.microsoft.com/json-schemas/tsdoc/v0/tsdoc.schema.json",
      "noStandardTags": true,
      "tagDefinitions": [
        {
          "tagName": "@alpha",
          "syntaxKind": "modifier"
        },
        {
          "tagName": "@beta",
          "syntaxKind": "modifier"
        },
        {
          "tagName": "@defaultValue",
          "syntaxKind": "block"
        },
        {
          "tagName": "@decorator",
          "syntaxKind": "block",
          "allowMultiple": true
        },
        {
          "tagName": "@deprecated",
          "syntaxKind": "block"
        },
        {
          "tagName": "@eventProperty",
          "syntaxKind": "modifier"
        },
        {
          "tagName": "@example",
          "syntaxKind": "block",
          "allowMultiple": true
        },
        {
          "tagName": "@experimental",
          "syntaxKind": "modifier"
        },
        {
          "tagName": "@inheritDoc",
          "syntaxKind": "inline"
        },
        {
          "tagName": "@internal",
          "syntaxKind": "modifier"
        },
        {
          "tagName": "@label",
          "syntaxKind": "inline"
        },
        {
          "tagName": "@link",
          "syntaxKind": "inline",
          "allowMultiple": true
        },
        {
          "tagName": "@override",
          "syntaxKind": "modifier"
        },
        {
          "tagName": "@packageDocumentation",
          "syntaxKind": "modifier"
        },
        {
          "tagName": "@param",
          "syntaxKind": "block",
          "allowMultiple": true
        },
        {
          "tagName": "@privateRemarks",
          "syntaxKind": "block"
        },
        {
          "tagName": "@public",
          "syntaxKind": "modifier"
        },
        {
          "tagName": "@readonly",
          "syntaxKind": "modifier"
        },
        {
          "tagName": "@remarks",
          "syntaxKind": "block"
        },
        {
          "tagName": "@returns",
          "syntaxKind": "block"
        },
        {
          "tagName": "@sealed",
          "syntaxKind": "modifier"
        },
        {
          "tagName": "@see",
          "syntaxKind": "block"
        },
        {
          "tagName": "@throws",
          "syntaxKind": "block",
          "allowMultiple": true
        },
        {
          "tagName": "@typeParam",
          "syntaxKind": "block",
          "allowMultiple": true
        },
        {
          "tagName": "@virtual",
          "syntaxKind": "modifier"
        },
        {
          "tagName": "@betaDocumentation",
          "syntaxKind": "modifier"
        },
        {
          "tagName": "@internalRemarks",
          "syntaxKind": "block"
        },
        {
          "tagName": "@preapproved",
          "syntaxKind": "modifier"
        }
      ],
      "supportForTags": {
        "@alpha": true,
        "@beta": true,
        "@defaultValue": true,
        "@decorator": true,
        "@deprecated": true,
        "@eventProperty": true,
        "@example": true,
        "@experimental": true,
        "@inheritDoc": true,
        "@internal": true,
        "@label": true,
        "@link": true,
        "@override": true,
        "@packageDocumentation": true,
        "@param": true,
        "@privateRemarks": true,
        "@public": true,
        "@readonly": true,
        "@remarks": true,
        "@returns": true,
        "@sealed": true,
        "@see": true,
        "@throws": true,
        "@typeParam": true,
        "@virtual": true,
        "@betaDocumentation": true,
        "@internalRemarks": true,
        "@preapproved": true
      },
      "reportUnsupportedHtmlElements": false
    }
  },
  "kind": "Package",
  "canonicalReference": "sic-util!",
  "docComment": "",
  "name": "sic-util",
  "preserveMemberOrder": false,
  "members": [
    {
      "kind": "EntryPoint",
      "canonicalReference": "sic-util!",
      "name": "",
      "preserveMemberOrder": false,
      "members": [
        {
          "kind": "Function",
          "canonicalReference": "sic-util!author_passwordCheck:function(1)",
          "docComment": "/**\n * 计算密码强度，返回等级\n *\n * @param str - 当前密码\n *\n * @returns {number} 强度等级\n */\n",
          "excerptTokens": [
            {
              "kind": "Content",
              "text": "author_passwordCheck: (str: "
            },
            {
              "kind": "Content",
              "text": "string"
            },
            {
              "kind": "Content",
              "text": ") => "
            },
            {
              "kind": "Content",
              "text": "number"
            }
          ],
          "fileUrlPath": "dist/types/modules/author.d.ts",
          "returnTypeTokenRange": {
            "startIndex": 3,
            "endIndex": 4
          },
          "releaseTag": "Public",
          "overloadIndex": 1,
          "parameters": [
            {
              "parameterName": "str",
              "parameterTypeTokenRange": {
                "startIndex": 1,
                "endIndex": 2
              },
              "isOptional": false
            }
          ],
          "name": "author_passwordCheck"
        },
        {
          "kind": "Function",
          "canonicalReference": "sic-util!author_router_add:function(1)",
          "docComment": "/**\n * 处理缓存的路由数据，将本地的路由信息补充进去 数据层面：既处理数据问题，也将DOM元素打进当前函数 业务层面：可以在当前函数中使用DOM元素，用于渲染\n *\n * @param origin - 接口的路由信息\n *\n * @param local - 本地的路由信息\n *\n * @returns {Array} 用于渲染的路由树\n */\n",
          "excerptTokens": [
            {
              "kind": "Content",
              "text": "author_router_add: (origin: "
            },
            {
              "kind": "Reference",
              "text": "MenuInformation",
              "canonicalReference": "sic-util!~MenuInformation:interface"
            },
            {
              "kind": "Content",
              "text": "[]"
            },
            {
              "kind": "Content",
              "text": ", local: "
            },
            {
              "kind": "Reference",
              "text": "MenuInformation",
              "canonicalReference": "sic-util!~MenuInformation:interface"
            },
            {
              "kind": "Content",
              "text": "[]"
            },
            {
              "kind": "Content",
              "text": ") => "
            },
            {
              "kind": "Content",
              "text": "({\n    resourcelist: "
            },
            {
              "kind": "Reference",
              "text": "ResourceList",
              "canonicalReference": "sic-util!~ResourceList:interface"
            },
            {
              "kind": "Content",
              "text": "[] | undefined;\n    menuid?: number | undefined;\n    menuId?: number | undefined;\n    parentid?: number | undefined;\n    parentId?: number | undefined;\n    parentname?: string | undefined;\n    parentName?: string | undefined;\n    resourceList?: "
            },
            {
              "kind": "Reference",
              "text": "ResourceList",
              "canonicalReference": "sic-util!~ResourceList:interface"
            },
            {
              "kind": "Content",
              "text": "[] | undefined;\n    sort?: number | undefined;\n    label?: string | undefined;\n    key?: string | undefined;\n    icon?: any;\n    element?: any;\n    children?: any;\n} | null)[]"
            }
          ],
          "fileUrlPath": "dist/types/modules/author.d.ts",
          "returnTypeTokenRange": {
            "startIndex": 7,
            "endIndex": 12
          },
          "releaseTag": "Public",
          "overloadIndex": 1,
          "parameters": [
            {
              "parameterName": "origin",
              "parameterTypeTokenRange": {
                "startIndex": 1,
                "endIndex": 3
              },
              "isOptional": false
            },
            {
              "parameterName": "local",
              "parameterTypeTokenRange": {
                "startIndex": 4,
                "endIndex": 6
              },
              "isOptional": false
            }
          ],
          "name": "author_router_add"
        },
        {
          "kind": "Function",
          "canonicalReference": "sic-util!author_router_filter:function(1)",
          "docComment": "/**\n * 处理接口的路由数据，将本地的路由信息补充进去 数据层面：既处理数据问题，也解决浏览器关于menuId，resourceList等字段驼峰大小写的警告 业务层面：处理的的数据存储到localstore中，便于系统使用\n *\n * @param origin - 接口的路由信息\n *\n * @param local - 本地的路由信息\n *\n * @returns {Array} 适配到项目的路由树\n */\n",
          "excerptTokens": [
            {
              "kind": "Content",
              "text": "author_router_filter: (origin: "
            },
            {
              "kind": "Reference",
              "text": "MenuInformation",
              "canonicalReference": "sic-util!~MenuInformation:interface"
            },
            {
              "kind": "Content",
              "text": "[]"
            },
            {
              "kind": "Content",
              "text": ", local: "
            },
            {
              "kind": "Reference",
              "text": "MenuInformation",
              "canonicalReference": "sic-util!~MenuInformation:interface"
            },
            {
              "kind": "Content",
              "text": "[]"
            },
            {
              "kind": "Content",
              "text": ") => "
            },
            {
              "kind": "Content",
              "text": "({\n    key: string | undefined;\n    menuid: number | undefined;\n    label: string | undefined;\n    resourcelist: "
            },
            {
              "kind": "Reference",
              "text": "ResourceList",
              "canonicalReference": "sic-util!~ResourceList:interface"
            },
            {
              "kind": "Content",
              "text": "[] | undefined;\n    children: any;\n} | null)[]"
            }
          ],
          "fileUrlPath": "dist/types/modules/author.d.ts",
          "returnTypeTokenRange": {
            "startIndex": 7,
            "endIndex": 10
          },
          "releaseTag": "Public",
          "overloadIndex": 1,
          "parameters": [
            {
              "parameterName": "origin",
              "parameterTypeTokenRange": {
                "startIndex": 1,
                "endIndex": 3
              },
              "isOptional": false
            },
            {
              "parameterName": "local",
              "parameterTypeTokenRange": {
                "startIndex": 4,
                "endIndex": 6
              },
              "isOptional": false
            }
          ],
          "name": "author_router_filter"
        },
        {
          "kind": "Function",
          "canonicalReference": "sic-util!author_strict:function(1)",
          "docComment": "/**\n * 严格匹配当前按钮权限\n *\n * @param list - 当前的页面权限\n *\n * @param id - 当前的按钮权限\n *\n * @returns {boolean} 是否存在该权限 true/false\n */\n",
          "excerptTokens": [
            {
              "kind": "Content",
              "text": "author_strict: (list: "
            },
            {
              "kind": "Reference",
              "text": "ResourceItem",
              "canonicalReference": "sic-util!~ResourceItem:type"
            },
            {
              "kind": "Content",
              "text": "[]"
            },
            {
              "kind": "Content",
              "text": ", id: "
            },
            {
              "kind": "Content",
              "text": "number"
            },
            {
              "kind": "Content",
              "text": ") => "
            },
            {
              "kind": "Content",
              "text": "boolean"
            }
          ],
          "fileUrlPath": "dist/types/modules/author.d.ts",
          "returnTypeTokenRange": {
            "startIndex": 6,
            "endIndex": 7
          },
          "releaseTag": "Public",
          "overloadIndex": 1,
          "parameters": [
            {
              "parameterName": "list",
              "parameterTypeTokenRange": {
                "startIndex": 1,
                "endIndex": 3
              },
              "isOptional": false
            },
            {
              "parameterName": "id",
              "parameterTypeTokenRange": {
                "startIndex": 4,
                "endIndex": 5
              },
              "isOptional": false
            }
          ],
          "name": "author_strict"
        },
        {
          "kind": "Function",
          "canonicalReference": "sic-util!author_traceId:function(1)",
          "docComment": "/**\n * 生成TraceId\n *\n * @param origin - 请求源（请求发起方）\n *\n * @param url - 请求url\n *\n * @returns - traceId，例如 \"os-os-1d677771-4e85-460d-b669-682077a5067f\"\n */\n",
          "excerptTokens": [
            {
              "kind": "Content",
              "text": "author_traceId: (origin: "
            },
            {
              "kind": "Content",
              "text": "string"
            },
            {
              "kind": "Content",
              "text": ", url: "
            },
            {
              "kind": "Content",
              "text": "string"
            },
            {
              "kind": "Content",
              "text": ") => "
            },
            {
              "kind": "Content",
              "text": "string"
            }
          ],
          "fileUrlPath": "dist/types/modules/author.d.ts",
          "returnTypeTokenRange": {
            "startIndex": 5,
            "endIndex": 6
          },
          "releaseTag": "Public",
          "overloadIndex": 1,
          "parameters": [
            {
              "parameterName": "origin",
              "parameterTypeTokenRange": {
                "startIndex": 1,
                "endIndex": 2
              },
              "isOptional": false
            },
            {
              "parameterName": "url",
              "parameterTypeTokenRange": {
                "startIndex": 3,
                "endIndex": 4
              },
              "isOptional": false
            }
          ],
          "name": "author_traceId"
        },
        {
          "kind": "Function",
          "canonicalReference": "sic-util!city_code_text:function(1)",
          "docComment": "/**\n * 编码转城市，默认三级\n */\n",
          "excerptTokens": [
            {
              "kind": "Content",
              "text": "city_code_text: (provinceId: "
            },
            {
              "kind": "Content",
              "text": "string"
            },
            {
              "kind": "Content",
              "text": ", cityId?: "
            },
            {
              "kind": "Content",
              "text": "string"
            },
            {
              "kind": "Content",
              "text": ", districtId?: "
            },
            {
              "kind": "Content",
              "text": "string"
            },
            {
              "kind": "Content",
              "text": ") => "
            },
            {
              "kind": "Content",
              "text": "string"
            }
          ],
          "fileUrlPath": "dist/types/modules/cityOptions.d.ts",
          "returnTypeTokenRange": {
            "startIndex": 7,
            "endIndex": 8
          },
          "releaseTag": "Public",
          "overloadIndex": 1,
          "parameters": [
            {
              "parameterName": "provinceId",
              "parameterTypeTokenRange": {
                "startIndex": 1,
                "endIndex": 2
              },
              "isOptional": false
            },
            {
              "parameterName": "cityId",
              "parameterTypeTokenRange": {
                "startIndex": 3,
                "endIndex": 4
              },
              "isOptional": true
            },
            {
              "parameterName": "districtId",
              "parameterTypeTokenRange": {
                "startIndex": 5,
                "endIndex": 6
              },
              "isOptional": true
            }
          ],
          "name": "city_code_text"
        },
        {
          "kind": "Function",
          "canonicalReference": "sic-util!city_options:function(1)",
          "docComment": "/**\n * 城市选择器 <Cascader/> 组件内使用 options={cityOptions} 引入省市区\n */\n",
          "excerptTokens": [
            {
              "kind": "Content",
              "text": "city_options: (level?: "
            },
            {
              "kind": "Content",
              "text": "string"
            },
            {
              "kind": "Content",
              "text": ") => "
            },
            {
              "kind": "Content",
              "text": "({\n    label: string;\n    value: string;\n    children?: undefined;\n} | {\n    label: string;\n    value: string;\n    children: {\n        label: string;\n        value: string;\n    }[];\n})[]"
            }
          ],
          "fileUrlPath": "dist/types/modules/cityOptions.d.ts",
          "returnTypeTokenRange": {
            "startIndex": 3,
            "endIndex": 4
          },
          "releaseTag": "Public",
          "overloadIndex": 1,
          "parameters": [
            {
              "parameterName": "level",
              "parameterTypeTokenRange": {
                "startIndex": 1,
                "endIndex": 2
              },
              "isOptional": true
            }
          ],
          "name": "city_options"
        },
        {
          "kind": "Function",
          "canonicalReference": "sic-util!city_two_code_text:function(1)",
          "docComment": "/**\n * 编码转城市\n */\n",
          "excerptTokens": [
            {
              "kind": "Content",
              "text": "city_two_code_text: (provinceId: "
            },
            {
              "kind": "Content",
              "text": "string"
            },
            {
              "kind": "Content",
              "text": ", cityId?: "
            },
            {
              "kind": "Content",
              "text": "string"
            },
            {
              "kind": "Content",
              "text": ") => "
            },
            {
              "kind": "Content",
              "text": "string"
            }
          ],
          "fileUrlPath": "dist/types/modules/cityOptions.d.ts",
          "returnTypeTokenRange": {
            "startIndex": 5,
            "endIndex": 6
          },
          "releaseTag": "Public",
          "overloadIndex": 1,
          "parameters": [
            {
              "parameterName": "provinceId",
              "parameterTypeTokenRange": {
                "startIndex": 1,
                "endIndex": 2
              },
              "isOptional": false
            },
            {
              "parameterName": "cityId",
              "parameterTypeTokenRange": {
                "startIndex": 3,
                "endIndex": 4
              },
              "isOptional": true
            }
          ],
          "name": "city_two_code_text"
        },
        {
          "kind": "Function",
          "canonicalReference": "sic-util!demo:function(1)",
          "docComment": "/**\n * 函数“demo”将字符串“123”记录到控制台。\n */\n",
          "excerptTokens": [
            {
              "kind": "Content",
              "text": "demo: () => "
            },
            {
              "kind": "Content",
              "text": "boolean"
            }
          ],
          "fileUrlPath": "dist/types/modules/demo.d.ts",
          "returnTypeTokenRange": {
            "startIndex": 1,
            "endIndex": 2
          },
          "releaseTag": "Public",
          "overloadIndex": 1,
          "parameters": [],
          "name": "demo"
        },
        {
          "kind": "Function",
          "canonicalReference": "sic-util!file_calculate_md5:function(1)",
          "docComment": "/**\n * 函数“file_calculate_md5”读取一个文件，计算其 MD5 哈希值，并将哈希值作为 Promise 返回。\n *\n * @param file - `file_calculate_md5` 函数将文件作为输入，并使用 CryptoJS 库计算文件内容的 MD5 哈希值。`file` 参数表示要计算 MD5 哈希值的文件。\n *\n * @returns 一旦文件被读取并处理完毕，`file_calculate_md5` 函数就会返回一个 Promise，该 Promise 会使用文件内容的 MD5 哈希值进行解析。\n */\n",
          "excerptTokens": [
            {
              "kind": "Content",
              "text": "file_calculate_md5: (file: "
            },
            {
              "kind": "Content",
              "text": "any"
            },
            {
              "kind": "Content",
              "text": ") => "
            },
            {
              "kind": "Reference",
              "text": "Promise",
              "canonicalReference": "!Promise:interface"
            },
            {
              "kind": "Content",
              "text": "<unknown>"
            }
          ],
          "fileUrlPath": "dist/types/modules/file.d.ts",
          "returnTypeTokenRange": {
            "startIndex": 3,
            "endIndex": 5
          },
          "releaseTag": "Public",
          "overloadIndex": 1,
          "parameters": [
            {
              "parameterName": "file",
              "parameterTypeTokenRange": {
                "startIndex": 1,
                "endIndex": 2
              },
              "isOptional": false
            }
          ],
          "name": "file_calculate_md5"
        },
        {
          "kind": "Function",
          "canonicalReference": "sic-util!file_load:function(1)",
          "docComment": "/**\n * 函数 \"file_load\" 下载一个文件\n *\n * @param url - 必填参数，传入的文件的url\n *\n * @param name - 可选参数，传入的文件的文件名。如果不提供，默认使用URL中的文件名\n */\n",
          "excerptTokens": [
            {
              "kind": "Content",
              "text": "file_load: (props: "
            },
            {
              "kind": "Reference",
              "text": "IProps",
              "canonicalReference": "sic-util!~IProps:interface"
            },
            {
              "kind": "Content",
              "text": ") => "
            },
            {
              "kind": "Reference",
              "text": "Promise",
              "canonicalReference": "!Promise:interface"
            },
            {
              "kind": "Content",
              "text": "<void> | undefined"
            }
          ],
          "fileUrlPath": "dist/types/modules/file.d.ts",
          "returnTypeTokenRange": {
            "startIndex": 3,
            "endIndex": 5
          },
          "releaseTag": "Public",
          "overloadIndex": 1,
          "parameters": [
            {
              "parameterName": "props",
              "parameterTypeTokenRange": {
                "startIndex": 1,
                "endIndex": 2
              },
              "isOptional": false
            }
          ],
          "name": "file_load"
        },
        {
          "kind": "Function",
          "canonicalReference": "sic-util!file_open:function(1)",
          "docComment": "/**\n * 函数 \"file_open\" 打开一个文件，如果该文件再浏览器无法预览，会实现下载功能\n *\n * @param url - 必填参数，传入的文件的url\n *\n * @param name - 可选参数，传入的文件的文件名。如果不提供，默认使用URL中的文件名\n */\n",
          "excerptTokens": [
            {
              "kind": "Content",
              "text": "file_open: (props: "
            },
            {
              "kind": "Reference",
              "text": "IProps",
              "canonicalReference": "sic-util!~IProps:interface"
            },
            {
              "kind": "Content",
              "text": ") => "
            },
            {
              "kind": "Content",
              "text": "void"
            }
          ],
          "fileUrlPath": "dist/types/modules/file.d.ts",
          "returnTypeTokenRange": {
            "startIndex": 3,
            "endIndex": 4
          },
          "releaseTag": "Public",
          "overloadIndex": 1,
          "parameters": [
            {
              "parameterName": "props",
              "parameterTypeTokenRange": {
                "startIndex": 1,
                "endIndex": 2
              },
              "isOptional": false
            }
          ],
          "name": "file_open"
        },
        {
          "kind": "Function",
          "canonicalReference": "sic-util!get_multiple_color:function(1)",
          "docComment": "/**\n * 该函数将颜色转成一种颜色的多种透明度的\n *\n * @param value - rgb或者十六进制\n *\n * @param opacity - 透明度\n *\n * @returns 十六进制颜色代码\n */\n",
          "excerptTokens": [
            {
              "kind": "Content",
              "text": "get_multiple_color: (value: "
            },
            {
              "kind": "Content",
              "text": "string | null"
            },
            {
              "kind": "Content",
              "text": ", opacity: "
            },
            {
              "kind": "Content",
              "text": "number"
            },
            {
              "kind": "Content",
              "text": ") => "
            },
            {
              "kind": "Content",
              "text": "string"
            }
          ],
          "fileUrlPath": "dist/types/modules/color.d.ts",
          "returnTypeTokenRange": {
            "startIndex": 5,
            "endIndex": 6
          },
          "releaseTag": "Public",
          "overloadIndex": 1,
          "parameters": [
            {
              "parameterName": "value",
              "parameterTypeTokenRange": {
                "startIndex": 1,
                "endIndex": 2
              },
              "isOptional": false
            },
            {
              "parameterName": "opacity",
              "parameterTypeTokenRange": {
                "startIndex": 3,
                "endIndex": 4
              },
              "isOptional": false
            }
          ],
          "name": "get_multiple_color"
        },
        {
          "kind": "Function",
          "canonicalReference": "sic-util!getOptionConfig:function(1)",
          "docComment": "/**\n * 获取枚举配置\n *\n * @param value - 当前value值\n *\n * @param array - 当前枚举配置\n */\n",
          "excerptTokens": [
            {
              "kind": "Content",
              "text": "getOptionConfig: (value: "
            },
            {
              "kind": "Content",
              "text": "number"
            },
            {
              "kind": "Content",
              "text": ", array: "
            },
            {
              "kind": "Content",
              "text": "any[]"
            },
            {
              "kind": "Content",
              "text": ") => "
            },
            {
              "kind": "Content",
              "text": "any"
            }
          ],
          "fileUrlPath": "dist/types/modules/temporary.d.ts",
          "returnTypeTokenRange": {
            "startIndex": 5,
            "endIndex": 6
          },
          "releaseTag": "Public",
          "overloadIndex": 1,
          "parameters": [
            {
              "parameterName": "value",
              "parameterTypeTokenRange": {
                "startIndex": 1,
                "endIndex": 2
              },
              "isOptional": false
            },
            {
              "parameterName": "array",
              "parameterTypeTokenRange": {
                "startIndex": 3,
                "endIndex": 4
              },
              "isOptional": false
            }
          ],
          "name": "getOptionConfig"
        },
        {
          "kind": "Function",
          "canonicalReference": "sic-util!getUrlConfig:function(1)",
          "docComment": "/**\n * 获取url 文件名 除后缀名以外的地址名 后缀名\n *\n * @param url - 地址\n */\n",
          "excerptTokens": [
            {
              "kind": "Content",
              "text": "getUrlConfig: (url: "
            },
            {
              "kind": "Content",
              "text": "string | null"
            },
            {
              "kind": "Content",
              "text": ") => "
            },
            {
              "kind": "Content",
              "text": "{\n    fileName: string;\n    prefix: string;\n    suffix: string;\n} | null"
            }
          ],
          "fileUrlPath": "dist/types/modules/temporary.d.ts",
          "returnTypeTokenRange": {
            "startIndex": 3,
            "endIndex": 4
          },
          "releaseTag": "Public",
          "overloadIndex": 1,
          "parameters": [
            {
              "parameterName": "url",
              "parameterTypeTokenRange": {
                "startIndex": 1,
                "endIndex": 2
              },
              "isOptional": false
            }
          ],
          "name": "getUrlConfig"
        },
        {
          "kind": "Function",
          "canonicalReference": "sic-util!hex_to_rgb:function(1)",
          "docComment": "/**\n * 函数“hex_to_rgb”将十六进制颜色代码转换为 RGB 颜色数组。\n *\n * @param hex - 十六进制颜色代码，例如“#FFA500”\n *\n * @returns 包含从输入提供的十六进制颜色代码转换而来的 RGB 值的数组。\n */\n",
          "excerptTokens": [
            {
              "kind": "Content",
              "text": "hex_to_rgb: (hex: "
            },
            {
              "kind": "Content",
              "text": "string"
            },
            {
              "kind": "Content",
              "text": ") => "
            },
            {
              "kind": "Reference",
              "text": "RgbColor",
              "canonicalReference": "sic-util!~RgbColor:type"
            }
          ],
          "fileUrlPath": "dist/types/modules/color.d.ts",
          "returnTypeTokenRange": {
            "startIndex": 3,
            "endIndex": 4
          },
          "releaseTag": "Public",
          "overloadIndex": 1,
          "parameters": [
            {
              "parameterName": "hex",
              "parameterTypeTokenRange": {
                "startIndex": 1,
                "endIndex": 2
              },
              "isOptional": false
            }
          ],
          "name": "hex_to_rgb"
        },
        {
          "kind": "Function",
          "canonicalReference": "sic-util!num_expand_100:function(1)",
          "docComment": "/**\n * 单位扩大两位，一般用于（分->元）（百分数->数）\n *\n * @param amount - 当前金额\n *\n * @param accuracy - 保留几位小数，默认2位\n */\n",
          "excerptTokens": [
            {
              "kind": "Content",
              "text": "num_expand_100: (amount: "
            },
            {
              "kind": "Content",
              "text": "number | string"
            },
            {
              "kind": "Content",
              "text": ", accuracy?: "
            },
            {
              "kind": "Content",
              "text": "number"
            },
            {
              "kind": "Content",
              "text": ") => "
            },
            {
              "kind": "Content",
              "text": "string | number"
            }
          ],
          "fileUrlPath": "dist/types/modules/number.d.ts",
          "returnTypeTokenRange": {
            "startIndex": 5,
            "endIndex": 6
          },
          "releaseTag": "Public",
          "overloadIndex": 1,
          "parameters": [
            {
              "parameterName": "amount",
              "parameterTypeTokenRange": {
                "startIndex": 1,
                "endIndex": 2
              },
              "isOptional": false
            },
            {
              "parameterName": "accuracy",
              "parameterTypeTokenRange": {
                "startIndex": 3,
                "endIndex": 4
              },
              "isOptional": true
            }
          ],
          "name": "num_expand_100"
        },
        {
          "kind": "Function",
          "canonicalReference": "sic-util!num_expand:function(1)",
          "docComment": "/**\n * 单位扩大固定倍数\n *\n * @param amount - 当前金额\n *\n * @param unit - 转换单位，默认100\n *\n * @param accuracy - 保留几位小数，默认2位\n */\n",
          "excerptTokens": [
            {
              "kind": "Content",
              "text": "num_expand: (amount: "
            },
            {
              "kind": "Content",
              "text": "number | string"
            },
            {
              "kind": "Content",
              "text": ", unit?: "
            },
            {
              "kind": "Content",
              "text": "number"
            },
            {
              "kind": "Content",
              "text": ", accuracy?: "
            },
            {
              "kind": "Content",
              "text": "number"
            },
            {
              "kind": "Content",
              "text": ") => "
            },
            {
              "kind": "Content",
              "text": "string | number"
            }
          ],
          "fileUrlPath": "dist/types/modules/number.d.ts",
          "returnTypeTokenRange": {
            "startIndex": 7,
            "endIndex": 8
          },
          "releaseTag": "Public",
          "overloadIndex": 1,
          "parameters": [
            {
              "parameterName": "amount",
              "parameterTypeTokenRange": {
                "startIndex": 1,
                "endIndex": 2
              },
              "isOptional": false
            },
            {
              "parameterName": "unit",
              "parameterTypeTokenRange": {
                "startIndex": 3,
                "endIndex": 4
              },
              "isOptional": true
            },
            {
              "parameterName": "accuracy",
              "parameterTypeTokenRange": {
                "startIndex": 5,
                "endIndex": 6
              },
              "isOptional": true
            }
          ],
          "name": "num_expand"
        },
        {
          "kind": "Function",
          "canonicalReference": "sic-util!num_reduce_100:function(1)",
          "docComment": "/**\n * 单位缩小两位，一般用于（元->分）（数->百分数）\n *\n * @param amount - 当前金额\n */\n",
          "excerptTokens": [
            {
              "kind": "Content",
              "text": "num_reduce_100: (amount: "
            },
            {
              "kind": "Content",
              "text": "any"
            },
            {
              "kind": "Content",
              "text": ") => "
            },
            {
              "kind": "Content",
              "text": "any"
            }
          ],
          "fileUrlPath": "dist/types/modules/number.d.ts",
          "returnTypeTokenRange": {
            "startIndex": 3,
            "endIndex": 4
          },
          "releaseTag": "Public",
          "overloadIndex": 1,
          "parameters": [
            {
              "parameterName": "amount",
              "parameterTypeTokenRange": {
                "startIndex": 1,
                "endIndex": 2
              },
              "isOptional": false
            }
          ],
          "name": "num_reduce_100"
        },
        {
          "kind": "Function",
          "canonicalReference": "sic-util!num_text:function(1)",
          "docComment": "/**\n * @description 数字转中文数码\n *\n * @param num - 数字[正整数]\n *\n * @param type - 文本类型，lower|upper，默认upper\n *\n * @example\n *\n * number2text(100000000) => \"壹亿元整\"\n */\n",
          "excerptTokens": [
            {
              "kind": "Content",
              "text": "num_text: (number: "
            },
            {
              "kind": "Content",
              "text": "number | string | undefined"
            },
            {
              "kind": "Content",
              "text": ", type?: "
            },
            {
              "kind": "Content",
              "text": "string"
            },
            {
              "kind": "Content",
              "text": ") => "
            },
            {
              "kind": "Content",
              "text": "string | false"
            }
          ],
          "fileUrlPath": "dist/types/modules/number.d.ts",
          "returnTypeTokenRange": {
            "startIndex": 5,
            "endIndex": 6
          },
          "releaseTag": "Public",
          "overloadIndex": 1,
          "parameters": [
            {
              "parameterName": "number",
              "parameterTypeTokenRange": {
                "startIndex": 1,
                "endIndex": 2
              },
              "isOptional": false
            },
            {
              "parameterName": "type",
              "parameterTypeTokenRange": {
                "startIndex": 3,
                "endIndex": 4
              },
              "isOptional": true
            }
          ],
          "name": "num_text"
        },
        {
          "kind": "Function",
          "canonicalReference": "sic-util!reduce_opacity:function(1)",
          "docComment": "/**\n * 函数“reduce_opacity”将十六进制颜色透明度改变，得到同等规则下的颜色。\n *\n * @param rgb - RGB颜色代码，例如 [ 22, 34, 55 ]\n *\n * @returns - RGB颜色代码，例如 [ 69, 78, 95 ]\n */\n",
          "excerptTokens": [
            {
              "kind": "Content",
              "text": "reduce_opacity: (rgb: "
            },
            {
              "kind": "Reference",
              "text": "RgbColor",
              "canonicalReference": "sic-util!~RgbColor:type"
            },
            {
              "kind": "Content",
              "text": ", opacity: "
            },
            {
              "kind": "Content",
              "text": "number"
            },
            {
              "kind": "Content",
              "text": ") => "
            },
            {
              "kind": "Reference",
              "text": "RgbColor",
              "canonicalReference": "sic-util!~RgbColor:type"
            }
          ],
          "fileUrlPath": "dist/types/modules/color.d.ts",
          "returnTypeTokenRange": {
            "startIndex": 5,
            "endIndex": 6
          },
          "releaseTag": "Public",
          "overloadIndex": 1,
          "parameters": [
            {
              "parameterName": "rgb",
              "parameterTypeTokenRange": {
                "startIndex": 1,
                "endIndex": 2
              },
              "isOptional": false
            },
            {
              "parameterName": "opacity",
              "parameterTypeTokenRange": {
                "startIndex": 3,
                "endIndex": 4
              },
              "isOptional": false
            }
          ],
          "name": "reduce_opacity"
        },
        {
          "kind": "Function",
          "canonicalReference": "sic-util!rgb_to_hex:function(1)",
          "docComment": "/**\n * 该函数将 RGB 颜色数组转换为十六进制颜色代码。\n *\n * @param rgb - 参数 `rgb` 应该是一个数字数组，表示 RGB 颜色模型中颜色的红色、绿色和蓝色值。\n *\n * @returns 十六进制颜色代码。\n */\n",
          "excerptTokens": [
            {
              "kind": "Content",
              "text": "rgb_to_hex: (rgb: "
            },
            {
              "kind": "Reference",
              "text": "RgbColor",
              "canonicalReference": "sic-util!~RgbColor:type"
            },
            {
              "kind": "Content",
              "text": ") => "
            },
            {
              "kind": "Content",
              "text": "string"
            }
          ],
          "fileUrlPath": "dist/types/modules/color.d.ts",
          "returnTypeTokenRange": {
            "startIndex": 3,
            "endIndex": 4
          },
          "releaseTag": "Public",
          "overloadIndex": 1,
          "parameters": [
            {
              "parameterName": "rgb",
              "parameterTypeTokenRange": {
                "startIndex": 1,
                "endIndex": 2
              },
              "isOptional": false
            }
          ],
          "name": "rgb_to_hex"
        },
        {
          "kind": "Function",
          "canonicalReference": "sic-util!sys_detectBrowser:function(1)",
          "docComment": "/**\n * 函数\"sys_detectBrowser\"检查浏览器版本，版本在当前系统兼容之外，将弹出提示\n */\n",
          "excerptTokens": [
            {
              "kind": "Content",
              "text": "sys_detectBrowser: () => "
            },
            {
              "kind": "Content",
              "text": "void"
            }
          ],
          "fileUrlPath": "dist/types/modules/system.d.ts",
          "returnTypeTokenRange": {
            "startIndex": 1,
            "endIndex": 2
          },
          "releaseTag": "Public",
          "overloadIndex": 1,
          "parameters": [],
          "name": "sys_detectBrowser"
        },
        {
          "kind": "Function",
          "canonicalReference": "sic-util!sys_print:function(1)",
          "docComment": "/**\n * 函数\"sys_print\"接受具有“url”属性的对象，并使用它通过“printJS”函数打印文档。\n *\n * @param props - `props` 参数是一个具有单个属性 `url` 的对象，该属性是一个字符串。\n */\n",
          "excerptTokens": [
            {
              "kind": "Content",
              "text": "sys_print: (props: "
            },
            {
              "kind": "Content",
              "text": "{\n    url: string;\n}"
            },
            {
              "kind": "Content",
              "text": ") => "
            },
            {
              "kind": "Content",
              "text": "void"
            }
          ],
          "fileUrlPath": "dist/types/modules/system.d.ts",
          "returnTypeTokenRange": {
            "startIndex": 3,
            "endIndex": 4
          },
          "releaseTag": "Public",
          "overloadIndex": 1,
          "parameters": [
            {
              "parameterName": "props",
              "parameterTypeTokenRange": {
                "startIndex": 1,
                "endIndex": 2
              },
              "isOptional": false
            }
          ],
          "name": "sys_print"
        },
        {
          "kind": "Function",
          "canonicalReference": "sic-util!tem_compare_version:function(1)",
          "docComment": "",
          "excerptTokens": [
            {
              "kind": "Content",
              "text": "tem_compare_version: (version1: "
            },
            {
              "kind": "Content",
              "text": "string"
            },
            {
              "kind": "Content",
              "text": ", version2: "
            },
            {
              "kind": "Content",
              "text": "string"
            },
            {
              "kind": "Content",
              "text": ") => "
            },
            {
              "kind": "Content",
              "text": "boolean"
            }
          ],
          "fileUrlPath": "dist/types/modules/temporary.d.ts",
          "returnTypeTokenRange": {
            "startIndex": 5,
            "endIndex": 6
          },
          "releaseTag": "Public",
          "overloadIndex": 1,
          "parameters": [
            {
              "parameterName": "version1",
              "parameterTypeTokenRange": {
                "startIndex": 1,
                "endIndex": 2
              },
              "isOptional": false
            },
            {
              "parameterName": "version2",
              "parameterTypeTokenRange": {
                "startIndex": 3,
                "endIndex": 4
              },
              "isOptional": false
            }
          ],
          "name": "tem_compare_version"
        },
        {
          "kind": "Function",
          "canonicalReference": "sic-util!tem_get_tableHeader:function(1)",
          "docComment": "/**\n * 新的表头数据转译\n *\n * @param keyVal - 接口返回的存在的表头\n *\n * @param cache - 存储\n *\n * @param initial - 默认\n */\n",
          "excerptTokens": [
            {
              "kind": "Content",
              "text": "tem_get_tableHeader: (keyVal: "
            },
            {
              "kind": "Reference",
              "text": "KeyVal",
              "canonicalReference": "sic-util!~KeyVal:type"
            },
            {
              "kind": "Content",
              "text": ", cache: "
            },
            {
              "kind": "Reference",
              "text": "TableHeaderItem",
              "canonicalReference": "sic-util!~TableHeaderItem:type"
            },
            {
              "kind": "Content",
              "text": "[]"
            },
            {
              "kind": "Content",
              "text": ", initial: "
            },
            {
              "kind": "Reference",
              "text": "TableHeaderItem",
              "canonicalReference": "sic-util!~TableHeaderItem:type"
            },
            {
              "kind": "Content",
              "text": "[]"
            },
            {
              "kind": "Content",
              "text": ") => "
            },
            {
              "kind": "Reference",
              "text": "TableHeaderItem",
              "canonicalReference": "sic-util!~TableHeaderItem:type"
            },
            {
              "kind": "Content",
              "text": "[]"
            }
          ],
          "fileUrlPath": "dist/types/modules/temporary.d.ts",
          "returnTypeTokenRange": {
            "startIndex": 9,
            "endIndex": 11
          },
          "releaseTag": "Public",
          "overloadIndex": 1,
          "parameters": [
            {
              "parameterName": "keyVal",
              "parameterTypeTokenRange": {
                "startIndex": 1,
                "endIndex": 2
              },
              "isOptional": false
            },
            {
              "parameterName": "cache",
              "parameterTypeTokenRange": {
                "startIndex": 3,
                "endIndex": 5
              },
              "isOptional": false
            },
            {
              "parameterName": "initial",
              "parameterTypeTokenRange": {
                "startIndex": 6,
                "endIndex": 8
              },
              "isOptional": false
            }
          ],
          "name": "tem_get_tableHeader"
        },
        {
          "kind": "Function",
          "canonicalReference": "sic-util!timejs:function(1)",
          "docComment": "/**\n * timejs 依赖于 dayjs 构建，形成管理时间的工具函数 TypeScript 中的 `timejs` 函数接受一个参数 `props`，并返回使用 `props` 调用 `dayjs` 的结果。\n *\n * @param props - `timejs` 函数中的 `props` 参数预计为 `any` 类型，这意味着它可以接受任何数据类型作为其值。\n *\n * @returns `timejs` 函数正在返回使用 `props` 参数调用 `dayjs` 函数的结果。\n */\n",
          "excerptTokens": [
            {
              "kind": "Content",
              "text": "timejs: (props?: "
            },
            {
              "kind": "Content",
              "text": "any"
            },
            {
              "kind": "Content",
              "text": ", props1?: "
            },
            {
              "kind": "Content",
              "text": "any"
            },
            {
              "kind": "Content",
              "text": ", props2?: "
            },
            {
              "kind": "Content",
              "text": "any"
            },
            {
              "kind": "Content",
              "text": ") => "
            },
            {
              "kind": "Reference",
              "text": "dayjs.Dayjs",
              "canonicalReference": "dayjs!dayjs.Dayjs:class"
            }
          ],
          "fileUrlPath": "dist/types/modules/timejs.d.ts",
          "returnTypeTokenRange": {
            "startIndex": 7,
            "endIndex": 8
          },
          "releaseTag": "Public",
          "overloadIndex": 1,
          "parameters": [
            {
              "parameterName": "props",
              "parameterTypeTokenRange": {
                "startIndex": 1,
                "endIndex": 2
              },
              "isOptional": true
            },
            {
              "parameterName": "props1",
              "parameterTypeTokenRange": {
                "startIndex": 3,
                "endIndex": 4
              },
              "isOptional": true
            },
            {
              "parameterName": "props2",
              "parameterTypeTokenRange": {
                "startIndex": 5,
                "endIndex": 6
              },
              "isOptional": true
            }
          ],
          "name": "timejs"
        },
        {
          "kind": "Function",
          "canonicalReference": "sic-util!val_edgeSpace:function(1)",
          "docComment": "/**\n * 函数\"val_space\"检查 TypeScript 中的给定值头尾是否有空格。\n *\n * @param value - \"val_space\" 函数中的 \"value\" 参数是可选的，可以是任何数据类型。\n *\n * @returns 函数 \"val_space\" 返回一个布尔值，指示输入的 \"value\" 头尾是否有空格。\n */\n",
          "excerptTokens": [
            {
              "kind": "Content",
              "text": "val_edgeSpace: (value?: "
            },
            {
              "kind": "Content",
              "text": "any"
            },
            {
              "kind": "Content",
              "text": ") => "
            },
            {
              "kind": "Content",
              "text": "boolean"
            }
          ],
          "fileUrlPath": "dist/types/modules/validation.d.ts",
          "returnTypeTokenRange": {
            "startIndex": 3,
            "endIndex": 4
          },
          "releaseTag": "Public",
          "overloadIndex": 1,
          "parameters": [
            {
              "parameterName": "value",
              "parameterTypeTokenRange": {
                "startIndex": 1,
                "endIndex": 2
              },
              "isOptional": true
            }
          ],
          "name": "val_edgeSpace"
        },
        {
          "kind": "Function",
          "canonicalReference": "sic-util!val_email:function(1)",
          "docComment": "/**\n * 函数\"validation_email\"检查 TypeScript 中的给定值是否是邮箱。\n *\n * @param value - \"validation_email\" 函数中的 \"value\" 参数是可选的，可以是任何数据类型。\n *\n * @returns 函数 \"validation_email\" 返回一个布尔值，指示输入的 \"value\" 是否是邮箱。\n */\n",
          "excerptTokens": [
            {
              "kind": "Content",
              "text": "val_email: (value?: "
            },
            {
              "kind": "Content",
              "text": "any"
            },
            {
              "kind": "Content",
              "text": ") => "
            },
            {
              "kind": "Content",
              "text": "boolean"
            }
          ],
          "fileUrlPath": "dist/types/modules/validation.d.ts",
          "returnTypeTokenRange": {
            "startIndex": 3,
            "endIndex": 4
          },
          "releaseTag": "Public",
          "overloadIndex": 1,
          "parameters": [
            {
              "parameterName": "value",
              "parameterTypeTokenRange": {
                "startIndex": 1,
                "endIndex": 2
              },
              "isOptional": true
            }
          ],
          "name": "val_email"
        },
        {
          "kind": "Function",
          "canonicalReference": "sic-util!val_empty:function(1)",
          "docComment": "/**\n * 函数\"val_space\"检查 TypeScript 中的给定值是否为空。\n *\n * @param value - \"val_space\" 函数中的 \"value\" 参数是可选的，可以是任何数据类型。\n *\n * @returns 函数 \"val_space\" 返回一个布尔值，指示输入的 \"value\" 头尾是否有空格。\n */\n",
          "excerptTokens": [
            {
              "kind": "Content",
              "text": "val_empty: (value?: "
            },
            {
              "kind": "Content",
              "text": "any"
            },
            {
              "kind": "Content",
              "text": ") => "
            },
            {
              "kind": "Content",
              "text": "boolean"
            }
          ],
          "fileUrlPath": "dist/types/modules/validation.d.ts",
          "returnTypeTokenRange": {
            "startIndex": 3,
            "endIndex": 4
          },
          "releaseTag": "Public",
          "overloadIndex": 1,
          "parameters": [
            {
              "parameterName": "value",
              "parameterTypeTokenRange": {
                "startIndex": 1,
                "endIndex": 2
              },
              "isOptional": true
            }
          ],
          "name": "val_empty"
        },
        {
          "kind": "Function",
          "canonicalReference": "sic-util!val_idCard:function(1)",
          "docComment": "/**\n * 函数\"validation_idCard\"检查 TypeScript 中的给定值是否是身份证号码。\n *\n * @param value - \"validation_idCard\" 函数中的 \"value\" 参数是可选的，可以是任何数据类型。\n *\n * @returns 函数 \"validation_idCard\" 返回一个布尔值，指示输入的 \"value\" 是否是身份证号码。\n */\n",
          "excerptTokens": [
            {
              "kind": "Content",
              "text": "val_idCard: (value?: "
            },
            {
              "kind": "Content",
              "text": "any"
            },
            {
              "kind": "Content",
              "text": ") => "
            },
            {
              "kind": "Content",
              "text": "boolean"
            }
          ],
          "fileUrlPath": "dist/types/modules/validation.d.ts",
          "returnTypeTokenRange": {
            "startIndex": 3,
            "endIndex": 4
          },
          "releaseTag": "Public",
          "overloadIndex": 1,
          "parameters": [
            {
              "parameterName": "value",
              "parameterTypeTokenRange": {
                "startIndex": 1,
                "endIndex": 2
              },
              "isOptional": true
            }
          ],
          "name": "val_idCard"
        },
        {
          "kind": "Function",
          "canonicalReference": "sic-util!val_num:function(1)",
          "docComment": "/**\n * 函数\"validation_num\"检查 TypeScript 中的给定值是否是数字。\n *\n * @param value - `validation_num` 函数中的 `value` 参数是可选的，可以是任何数据类型。\n *\n * @returns 函数“validation_num”返回一个布尔值，指示输入的“value”是否是数字。\n */\n",
          "excerptTokens": [
            {
              "kind": "Content",
              "text": "val_num: (value?: "
            },
            {
              "kind": "Content",
              "text": "any"
            },
            {
              "kind": "Content",
              "text": ") => "
            },
            {
              "kind": "Content",
              "text": "boolean"
            }
          ],
          "fileUrlPath": "dist/types/modules/validation.d.ts",
          "returnTypeTokenRange": {
            "startIndex": 3,
            "endIndex": 4
          },
          "releaseTag": "Public",
          "overloadIndex": 1,
          "parameters": [
            {
              "parameterName": "value",
              "parameterTypeTokenRange": {
                "startIndex": 1,
                "endIndex": 2
              },
              "isOptional": true
            }
          ],
          "name": "val_num"
        },
        {
          "kind": "Function",
          "canonicalReference": "sic-util!val_phone:function(1)",
          "docComment": "/**\n * 函数\"validation_phone\"检查 TypeScript 中的给定值是否是手机号。\n *\n * @param value - \"validation_phone\" 函数中的 \"value\" 参数是可选的，可以是任何数据类型。\n *\n * @returns 函数 \"validation_phone\" 返回一个布尔值，指示输入的 \"value\" 是否是手机号。\n */\n",
          "excerptTokens": [
            {
              "kind": "Content",
              "text": "val_phone: (value?: "
            },
            {
              "kind": "Content",
              "text": "any"
            },
            {
              "kind": "Content",
              "text": ") => "
            },
            {
              "kind": "Content",
              "text": "boolean"
            }
          ],
          "fileUrlPath": "dist/types/modules/validation.d.ts",
          "returnTypeTokenRange": {
            "startIndex": 3,
            "endIndex": 4
          },
          "releaseTag": "Public",
          "overloadIndex": 1,
          "parameters": [
            {
              "parameterName": "value",
              "parameterTypeTokenRange": {
                "startIndex": 1,
                "endIndex": 2
              },
              "isOptional": true
            }
          ],
          "name": "val_phone"
        },
        {
          "kind": "Function",
          "canonicalReference": "sic-util!val_space:function(1)",
          "docComment": "/**\n * 函数\"val_space\"检查 TypeScript 中的给定值是否有空格。\n *\n * @param value - \"val_space\" 函数中的 \"value\" 参数是可选的，可以是任何数据类型。\n *\n * @returns 函数 \"val_space\" 返回一个布尔值，指示输入的 \"value\" 是否有空格。\n */\n",
          "excerptTokens": [
            {
              "kind": "Content",
              "text": "val_space: (value?: "
            },
            {
              "kind": "Content",
              "text": "any"
            },
            {
              "kind": "Content",
              "text": ") => "
            },
            {
              "kind": "Content",
              "text": "boolean"
            }
          ],
          "fileUrlPath": "dist/types/modules/validation.d.ts",
          "returnTypeTokenRange": {
            "startIndex": 3,
            "endIndex": 4
          },
          "releaseTag": "Public",
          "overloadIndex": 1,
          "parameters": [
            {
              "parameterName": "value",
              "parameterTypeTokenRange": {
                "startIndex": 1,
                "endIndex": 2
              },
              "isOptional": true
            }
          ],
          "name": "val_space"
        },
        {
          "kind": "Function",
          "canonicalReference": "sic-util!win_dynamic_fontSize:function(1)",
          "docComment": "/**\n * 函数“win_dynamic_fontSize”根据当前屏幕宽度计算并设置文档的字体大小。\n */\n",
          "excerptTokens": [
            {
              "kind": "Content",
              "text": "win_dynamic_fontSize: () => "
            },
            {
              "kind": "Content",
              "text": "void"
            }
          ],
          "fileUrlPath": "dist/types/modules/window.d.ts",
          "returnTypeTokenRange": {
            "startIndex": 1,
            "endIndex": 2
          },
          "releaseTag": "Public",
          "overloadIndex": 1,
          "parameters": [],
          "name": "win_dynamic_fontSize"
        }
      ]
    }
  ]
}
